{
  "_v": "23.2",
  "_type": "object_type_definitions",
  "count": 6,
  "data": [
    {
      "_type": "object_type_definition",
      "_resource_state": "50ddc22db56ece8a16a546bb710d894b8a3d7a90d453c7d3e68c18f1957528b4",
      "object_type": "Product",
      "link": "https://localhost:3000/s/-/dw/data/v23_2/system_object_definitions/Product"
    },
    {
      "_type": "object_type_definition",
      "_resource_state": "c02990e0c2dd64cecf2dd7f89b857718ddbf19c1607a30b2a964945f7d653343",
      "object_type": "Category",
      "link": "https://localhost:3000/s/-/dw/data/v23_2/system_object_definitions/Category"
    },
    {
      "_type": "object_type_definition",
      "_resource_state": "41677a8c9dc8a3d7bff48395880f3c80eac4d5627d82d03581f7e6ae8e36c0dd",
      "object_type": "CustomerAddress",
      "link": "https://localhost:3000/s/-/dw/data/v23_2/system_object_definitions/CustomerAddress"
    },
    {
      "_type": "object_type_definition",
      "_resource_state": "969b2870f867b14ec145ae39ddc0370ea64951112cde3275ff2bf063f045bf96",
      "object_type": "CustomObject",
      "link": "https://localhost:3000/s/-/dw/data/v23_2/system_object_definitions/CustomObject"
    },
    {
      "_type": "object_type_definition",
      "_resource_state": "e7f6d5c4a3b2e1d0c9a8b7e6f5d4c3a2b1e0d9c8b7a6f5e4d3c2a1b0e9f8d7c6",
      "object_type": "Order",
      "link": "https://localhost:3000/s/-/dw/data/v23_2/system_object_definitions/Order"
    },
    {
      "_type": "object_type_definition",
      "_resource_state": "d6c5a4b3e2d1c0a9b8e7f6d5c4a3b2e1d0c9a8b7e6f5d4c3a2b1e0d9c8b7a6f5",
      "object_type": "SitePreferences",
      "link": "https://localhost:3000/s/-/dw/data/v23_2/system_object_definitions/SitePreferences"
    }
  ],
  "next": "https://localhost:3000/s/-/dw/data/v23_2/system_object_definitions?start=6&count=6",
  "start": 0,
  "total": 72
}